com\mycompany\databaseproject\InsertDatabase.class
com\mycompany\databaseproject\UpdateDatabase.class
com\mycompany\databaseproject\ConnectDatabase.class
com\mycompany\databaseproject\SelectDatabase.class
com\mycompany\databaseproject\DeleteDatabase1.class
